Mapping demo
…
```r
library(tidyverse)
library(flipbookr)
library(scales)
```

---

```r
load("~/training/2019_July_IDVR/poverty_bd.rda")
poverty.bd
```

```
# A tibble: 64 x 2
   District     poverty
   <chr>          <dbl>
 1 BARGUNA         19  
 2 BARISAL         54.8
 3 BHOLA           33.2
 4 JHALOKATI       40.5
 5 PATUAKHALI      25.8
 6 PIROJPUR        44.1
 7 BANDARBAN       40.1
 8 BRAHMANBARIA    30.0
 9 CHANDPUR        51  
10 CHITTAGONG      11.5
# … with 54 more rows
```
…
