ggplot2 demo
…
Let's first introduce the data 

```r
gss_cat
```

```
# A tibble: 21,483 x 9
    year marital     age race  rincome    partyid     relig     denom    tvhours
   <int> <fct>     <int> <fct> <fct>      <fct>       <fct>     <fct>      <int>
 1  2000 Never ma…    26 White $8000 to … Ind,near r… Protesta… Souther…      12
 2  2000 Divorced     48 White $8000 to … Not str re… Protesta… Baptist…      NA
 3  2000 Widowed      67 White Not appli… Independent Protesta… No deno…       2
 4  2000 Never ma…    39 White Not appli… Ind,near r… Orthodox… Not app…       4
 5  2000 Divorced     25 White Not appli… Not str de… None      Not app…       1
 6  2000 Married      25 White $20000 - … Strong dem… Protesta… Souther…      NA
 7  2000 Never ma…    36 White $25000 or… Not str re… Christian Not app…       3
 8  2000 Divorced     44 White $7000 to … Ind,near d… Protesta… Luthera…      NA
 9  2000 Married      44 White $25000 or… Not str de… Protesta… Other          0
10  2000 Married      47 White $25000 or… Strong rep… Protesta… Souther…       3
# … with 21,473 more rows
```
…
.column[.content[

```r
gss <- gss_cat %>%  
    mutate(race=fct_relevel(race,c("White","Black","Other")),  
	   marital=fct_relevel(marital,c("Married","Widowed",  
					 "Divorced","Separated",  
					 "Never married","No answer")))  
*gss
```
]]
.column[.content[

```
# A tibble: 21,483 x 9
    year marital     age race  rincome    partyid     relig     denom    tvhours
   <int> <fct>     <int> <fct> <fct>      <fct>       <fct>     <fct>      <int>
 1  2000 Never ma…    26 White $8000 to … Ind,near r… Protesta… Souther…      12
 2  2000 Divorced     48 White $8000 to … Not str re… Protesta… Baptist…      NA
 3  2000 Widowed      67 White Not appli… Independent Protesta… No deno…       2
 4  2000 Never ma…    39 White Not appli… Ind,near r… Orthodox… Not app…       4
 5  2000 Divorced     25 White Not appli… Not str de… None      Not app…       1
 6  2000 Married      25 White $20000 - … Strong dem… Protesta… Souther…      NA
 7  2000 Never ma…    36 White $25000 or… Not str re… Christian Not app…       3
 8  2000 Divorced     44 White $7000 to … Ind,near d… Protesta… Luthera…      NA
 9  2000 Married      44 White $25000 or… Not str de… Protesta… Other          0
10  2000 Married      47 White $25000 or… Strong rep… Protesta… Souther…       3
# … with 21,473 more rows
```
…
```r
gss <- gss_cat %>%  
    mutate(race=fct_relevel(race,c("White","Black","Other")),  
	   marital=fct_relevel(marital,c("Married","Widowed",  
					 "Divorced","Separated",  
					 "Never married","No answer")))  
gss  
*levels(gss$race)
```
]]
.column[.content[

```
# A tibble: 21,483 x 9
    year marital     age race  rincome    partyid     relig     denom    tvhours
   <int> <fct>     <int> <fct> <fct>      <fct>       <fct>     <fct>      <int>
 1  2000 Never ma…    26 White $8000 to … Ind,near r… Protesta… Souther…      12
 2  2000 Divorced     48 White $8000 to … Not str re… Protesta… Baptist…      NA
 3  2000 Widowed      67 White Not appli… Independent Protesta… No deno…       2
 4  2000 Never ma…    39 White Not appli… Ind,near r… Orthodox… Not app…       4
 5  2000 Divorced     25 White Not appli… Not str de… None      Not app…       1
 6  2000 Married      25 White $20000 - … Strong dem… Protesta… Souther…      NA
 7  2000 Never ma…    36 White $25000 or… Not str re… Christian Not app…       3
 8  2000 Divorced     44 White $7000 to … Ind,near d… Protesta… Luthera…      NA
 9  2000 Married      44 White $25000 or… Not str de… Protesta… Other          0
10  2000 Married      47 White $25000 or… Strong rep… Protesta… Souther…       3
# … with 21,473 more rows
```
…
```r
gss <- gss_cat %>%  
    mutate(race=fct_relevel(race,c("White","Black","Other")),  
	   marital=fct_relevel(marital,c("Married","Widowed",  
					 "Divorced","Separated",  
					 "Never married","No answer")))  
gss  
levels(gss$race)  
*levels(gss$marital)
```
]]
.column[.content[

```
# A tibble: 21,483 x 9
    year marital     age race  rincome    partyid     relig     denom    tvhours
   <int> <fct>     <int> <fct> <fct>      <fct>       <fct>     <fct>      <int>
 1  2000 Never ma…    26 White $8000 to … Ind,near r… Protesta… Souther…      12
 2  2000 Divorced     48 White $8000 to … Not str re… Protesta… Baptist…      NA
 3  2000 Widowed      67 White Not appli… Independent Protesta… No deno…       2
 4  2000 Never ma…    39 White Not appli… Ind,near r… Orthodox… Not app…       4
 5  2000 Divorced     25 White Not appli… Not str de… None      Not app…       1
 6  2000 Married      25 White $20000 - … Strong dem… Protesta… Souther…      NA
 7  2000 Never ma…    36 White $25000 or… Not str re… Christian Not app…       3
 8  2000 Divorced     44 White $7000 to … Ind,near d… Protesta… Luthera…      NA
 9  2000 Married      44 White $25000 or… Not str de… Protesta… Other          0
10  2000 Married      47 White $25000 or… Strong rep… Protesta… Souther…       3
# … with 21,473 more rows
```
…
*gss
```
]]
.column[.content[

```
# A tibble: 21,483 x 9
    year marital     age race  rincome    partyid     relig     denom    tvhours
   <int> <fct>     <int> <fct> <fct>      <fct>       <fct>     <fct>      <int>
 1  2000 Never ma…    26 White $8000 to … Ind,near r… Protesta… Souther…      12
 2  2000 Divorced     48 White $8000 to … Not str re… Protesta… Baptist…      NA
 3  2000 Widowed      67 White Not appli… Independent Protesta… No deno…       2
 4  2000 Never ma…    39 White Not appli… Ind,near r… Orthodox… Not app…       4
 5  2000 Divorced     25 White Not appli… Not str de… None      Not app…       1
 6  2000 Married      25 White $20000 - … Strong dem… Protesta… Souther…      NA
 7  2000 Never ma…    36 White $25000 or… Not str re… Christian Not app…       3
 8  2000 Divorced     44 White $7000 to … Ind,near d… Protesta… Luthera…      NA
 9  2000 Married      44 White $25000 or… Not str de… Protesta… Other          0
10  2000 Married      47 White $25000 or… Strong rep… Protesta… Souther…       3
# … with 21,473 more rows
```

```
[1] "White"          "Black"          "Other"          "Not applicable"
```

```
[1] "Married"       "Widowed"       "Divorced"      "Separated"    
[5] "Never married" "No answer"    
```

```
# A tibble: 21,483 x 9
    year marital     age race  rincome    partyid     relig     denom    tvhours
   <int> <fct>     <int> <fct> <fct>      <fct>       <fct>     <fct>      <int>
 1  2000 Never ma…    26 White $8000 to … Ind,near r… Protesta… Souther…      12
 2  2000 Divorced     48 White $8000 to … Not str re… Protesta… Baptist…      NA
 3  2000 Widowed      67 White Not appli… Independent Protesta… No deno…       2
 4  2000 Never ma…    39 White Not appli… Ind,near r… Orthodox… Not app…       4
 5  2000 Divorced     25 White Not appli… Not str de… None      Not app…       1
 6  2000 Married      25 White $20000 - … Strong dem… Protesta… Souther…      NA
 7  2000 Never ma…    36 White $25000 or… Not str re… Christian Not app…       3
 8  2000 Divorced     44 White $7000 to … Ind,near d… Protesta… Luthera…      NA
 9  2000 Married      44 White $25000 or… Not str de… Protesta… Other          0
10  2000 Married      47 White $25000 or… Strong rep… Protesta… Souther…       3
# … with 21,473 more rows
```
…
gss %>%  
*   count(race,marital)
```
]]
.column[.content[

```
# A tibble: 21,483 x 9
    year marital     age race  rincome    partyid     relig     denom    tvhours
   <int> <fct>     <int> <fct> <fct>      <fct>       <fct>     <fct>      <int>
 1  2000 Never ma…    26 White $8000 to … Ind,near r… Protesta… Souther…      12
 2  2000 Divorced     48 White $8000 to … Not str re… Protesta… Baptist…      NA
 3  2000 Widowed      67 White Not appli… Independent Protesta… No deno…       2
 4  2000 Never ma…    39 White Not appli… Ind,near r… Orthodox… Not app…       4
 5  2000 Divorced     25 White Not appli… Not str de… None      Not app…       1
 6  2000 Married      25 White $20000 - … Strong dem… Protesta… Souther…      NA
 7  2000 Never ma…    36 White $25000 or… Not str re… Christian Not app…       3
 8  2000 Divorced     44 White $7000 to … Ind,near d… Protesta… Luthera…      NA
 9  2000 Married      44 White $25000 or… Not str de… Protesta… Other          0
10  2000 Married      47 White $25000 or… Strong rep… Protesta… Souther…       3
# … with 21,473 more rows
```
…
gss %>%  
    count(race,marital) %>%  
*   group_by(race)
```
]]
.column[.content[

```
# A tibble: 21,483 x 9
    year marital     age race  rincome    partyid     relig     denom    tvhours
   <int> <fct>     <int> <fct> <fct>      <fct>       <fct>     <fct>      <int>
 1  2000 Never ma…    26 White $8000 to … Ind,near r… Protesta… Souther…      12
 2  2000 Divorced     48 White $8000 to … Not str re… Protesta… Baptist…      NA
 3  2000 Widowed      67 White Not appli… Independent Protesta… No deno…       2
 4  2000 Never ma…    39 White Not appli… Ind,near r… Orthodox… Not app…       4
 5  2000 Divorced     25 White Not appli… Not str de… None      Not app…       1
 6  2000 Married      25 White $20000 - … Strong dem… Protesta… Souther…      NA
 7  2000 Never ma…    36 White $25000 or… Not str re… Christian Not app…       3
 8  2000 Divorced     44 White $7000 to … Ind,near d… Protesta… Luthera…      NA
 9  2000 Married      44 White $25000 or… Not str de… Protesta… Other          0
10  2000 Married      47 White $25000 or… Strong rep… Protesta… Souther…       3
# … with 21,473 more rows
```
…
```
# A tibble: 21,483 x 9
    year marital     age race  rincome    partyid     relig     denom    tvhours
   <int> <fct>     <int> <fct> <fct>      <fct>       <fct>     <fct>      <int>
 1  2000 Never ma…    26 White $8000 to … Ind,near r… Protesta… Souther…      12
 2  2000 Divorced     48 White $8000 to … Not str re… Protesta… Baptist…      NA
 3  2000 Widowed      67 White Not appli… Independent Protesta… No deno…       2
 4  2000 Never ma…    39 White Not appli… Ind,near r… Orthodox… Not app…       4
 5  2000 Divorced     25 White Not appli… Not str de… None      Not app…       1
 6  2000 Married      25 White $20000 - … Strong dem… Protesta… Souther…      NA
 7  2000 Never ma…    36 White $25000 or… Not str re… Christian Not app…       3
 8  2000 Divorced     44 White $7000 to … Ind,near d… Protesta… Luthera…      NA
 9  2000 Married      44 White $25000 or… Not str de… Protesta… Other          0
10  2000 Married      47 White $25000 or… Strong rep… Protesta… Souther…       3
# … with 21,473 more rows
```
…
```
# A tibble: 21,483 x 9
    year marital     age race  rincome    partyid     relig     denom    tvhours
   <int> <fct>     <int> <fct> <fct>      <fct>       <fct>     <fct>      <int>
 1  2000 Never ma…    26 White $8000 to … Ind,near r… Protesta… Souther…      12
 2  2000 Divorced     48 White $8000 to … Not str re… Protesta… Baptist…      NA
 3  2000 Widowed      67 White Not appli… Independent Protesta… No deno…       2
 4  2000 Never ma…    39 White Not appli… Ind,near r… Orthodox… Not app…       4
 5  2000 Divorced     25 White Not appli… Not str de… None      Not app…       1
 6  2000 Married      25 White $20000 - … Strong dem… Protesta… Souther…      NA
 7  2000 Never ma…    36 White $25000 or… Not str re… Christian Not app…       3
 8  2000 Divorced     44 White $7000 to … Ind,near d… Protesta… Luthera…      NA
 9  2000 Married      44 White $25000 or… Not str de… Protesta… Other          0
10  2000 Married      47 White $25000 or… Strong rep… Protesta… Souther…       3
# … with 21,473 more rows
```
…
```
# A tibble: 21,483 x 9
    year marital     age race  rincome    partyid     relig     denom    tvhours
   <int> <fct>     <int> <fct> <fct>      <fct>       <fct>     <fct>      <int>
 1  2000 Never ma…    26 White $8000 to … Ind,near r… Protesta… Souther…      12
 2  2000 Divorced     48 White $8000 to … Not str re… Protesta… Baptist…      NA
 3  2000 Widowed      67 White Not appli… Independent Protesta… No deno…       2
 4  2000 Never ma…    39 White Not appli… Ind,near r… Orthodox… Not app…       4
 5  2000 Divorced     25 White Not appli… Not str de… None      Not app…       1
 6  2000 Married      25 White $20000 - … Strong dem… Protesta… Souther…      NA
 7  2000 Never ma…    36 White $25000 or… Not str re… Christian Not app…       3
 8  2000 Divorced     44 White $7000 to … Ind,near d… Protesta… Luthera…      NA
 9  2000 Married      44 White $25000 or… Not str de… Protesta… Other          0
10  2000 Married      47 White $25000 or… Strong rep… Protesta… Souther…       3
# … with 21,473 more rows
```
…
---

class: split-50
count: false

.column[.content[

```r
*gss_cat
```
]]
.column[.content[

```
# A tibble: 21,483 x 9
    year marital     age race  rincome    partyid     relig     denom    tvhours
   <int> <fct>     <int> <fct> <fct>      <fct>       <fct>     <fct>      <int>
 1  2000 Never ma…    26 White $8000 to … Ind,near r… Protesta… Souther…      12
 2  2000 Divorced     48 White $8000 to … Not str re… Protesta… Baptist…      NA
 3  2000 Widowed      67 White Not appli… Independent Protesta… No deno…       2
 4  2000 Never ma…    39 White Not appli… Ind,near r… Orthodox… Not app…       4
 5  2000 Divorced     25 White Not appli… Not str de… None      Not app…       1
 6  2000 Married      25 White $20000 - … Strong dem… Protesta… Souther…      NA
 7  2000 Never ma…    36 White $25000 or… Not str re… Christian Not app…       3
 8  2000 Divorced     44 White $7000 to … Ind,near d… Protesta… Luthera…      NA
 9  2000 Married      44 White $25000 or… Not str de… Protesta… Other          0
10  2000 Married      47 White $25000 or… Strong rep… Protesta… Souther…       3
# … with 21,473 more rows
```
…
---

class: split-50
count: false

.column[.content[

```r
*gss_cat
```
]]
.column[.content[

```
# A tibble: 21,483 x 9
    year marital     age race  rincome    partyid     relig     denom    tvhours
   <int> <fct>     <int> <fct> <fct>      <fct>       <fct>     <fct>      <int>
 1  2000 Never ma…    26 White $8000 to … Ind,near r… Protesta… Souther…      12
 2  2000 Divorced     48 White $8000 to … Not str re… Protesta… Baptist…      NA
 3  2000 Widowed      67 White Not appli… Independent Protesta… No deno…       2
 4  2000 Never ma…    39 White Not appli… Ind,near r… Orthodox… Not app…       4
 5  2000 Divorced     25 White Not appli… Not str de… None      Not app…       1
 6  2000 Married      25 White $20000 - … Strong dem… Protesta… Souther…      NA
 7  2000 Never ma…    36 White $25000 or… Not str re… Christian Not app…       3
 8  2000 Divorced     44 White $7000 to … Ind,near d… Protesta… Luthera…      NA
 9  2000 Married      44 White $25000 or… Not str de… Protesta… Other          0
10  2000 Married      47 White $25000 or… Strong rep… Protesta… Souther…       3
# … with 21,473 more rows
```
…
