Dplyr Misc
…
.column[.content[

```r
star <- starwars%>%  
    select(name:skin_color)  
*star
```
]]
.column[.content[

```
# A tibble: 87 x 5
   name               height  mass hair_color    skin_color 
   <chr>               <int> <dbl> <chr>         <chr>      
 1 Luke Skywalker        172    77 blond         fair       
 2 C-3PO                 167    75 <NA>          gold       
 3 R2-D2                  96    32 <NA>          white, blue
 4 Darth Vader           202   136 none          white      
 5 Leia Organa           150    49 brown         light      
 6 Owen Lars             178   120 brown, grey   light      
 7 Beru Whitesun lars    165    75 brown         light      
 8 R5-D4                  97    32 <NA>          white, red 
 9 Biggs Darklighter     183    84 black         light      
10 Obi-Wan Kenobi        182    77 auburn, white fair       
# … with 77 more rows
```
…
.column[.content[

```r
star <- starwars%>%  
    select(name:skin_color)  
star %>%  
*   relocate(skin_color)
```
]]
.column[.content[

```
# A tibble: 87 x 5
   skin_color  name               height  mass hair_color   
   <chr>       <chr>               <int> <dbl> <chr>        
 1 fair        Luke Skywalker        172    77 blond        
 2 gold        C-3PO                 167    75 <NA>         
 3 white, blue R2-D2                  96    32 <NA>         
 4 white       Darth Vader           202   136 none         
 5 light       Leia Organa           150    49 brown        
 6 light       Owen Lars             178   120 brown, grey  
 7 light       Beru Whitesun lars    165    75 brown        
 8 white, red  R5-D4                  97    32 <NA>         
 9 light       Biggs Darklighter     183    84 black        
10 fair        Obi-Wan Kenobi        182    77 auburn, white
# … with 77 more rows
```
…
```
# A tibble: 2 x 5
  skin_color name           height  mass hair_color
  <chr>      <chr>           <int> <dbl> <chr>     
1 fair       Luke Skywalker    172    77 blond     
2 gold       C-3PO             167    75 <NA>      
```

```
# A tibble: 87 x 5
   name               height  mass hair_color    skin_color 
   <chr>               <int> <dbl> <chr>         <chr>      
 1 Luke Skywalker        172    77 blond         fair       
 2 C-3PO                 167    75 <NA>          gold       
 3 R2-D2                  96    32 <NA>          white, blue
 4 Darth Vader           202   136 none          white      
 5 Leia Organa           150    49 brown         light      
 6 Owen Lars             178   120 brown, grey   light      
 7 Beru Whitesun lars    165    75 brown         light      
 8 R5-D4                  97    32 <NA>          white, red 
 9 Biggs Darklighter     183    84 black         light      
10 Obi-Wan Kenobi        182    77 auburn, white fair       
# … with 77 more rows
```
…
```
# A tibble: 2 x 5
  skin_color name           height  mass hair_color
  <chr>      <chr>           <int> <dbl> <chr>     
1 fair       Luke Skywalker    172    77 blond     
2 gold       C-3PO             167    75 <NA>      
```

```
# A tibble: 87 x 5
   name               height skin_color   mass hair_color   
   <chr>               <int> <chr>       <dbl> <chr>        
 1 Luke Skywalker        172 fair           77 blond        
 2 C-3PO                 167 gold           75 <NA>         
 3 R2-D2                  96 white, blue    32 <NA>         
 4 Darth Vader           202 white         136 none         
 5 Leia Organa           150 light          49 brown        
 6 Owen Lars             178 light         120 brown, grey  
 7 Beru Whitesun lars    165 light          75 brown        
 8 R5-D4                  97 white, red     32 <NA>         
 9 Biggs Darklighter     183 light          84 black        
10 Obi-Wan Kenobi        182 fair           77 auburn, white
# … with 77 more rows
```
…
```
# A tibble: 2 x 5
  name           height skin_color  mass hair_color
  <chr>           <int> <chr>      <dbl> <chr>     
1 Luke Skywalker    172 fair          77 blond     
2 C-3PO             167 gold          75 <NA>      
```

```
# A tibble: 87 x 5
   name               height  mass hair_color    skin_color 
   <chr>               <int> <dbl> <chr>         <chr>      
 1 Luke Skywalker        172    77 blond         fair       
 2 C-3PO                 167    75 <NA>          gold       
 3 R2-D2                  96    32 <NA>          white, blue
 4 Darth Vader           202   136 none          white      
 5 Leia Organa           150    49 brown         light      
 6 Owen Lars             178   120 brown, grey   light      
 7 Beru Whitesun lars    165    75 brown         light      
 8 R5-D4                  97    32 <NA>          white, red 
 9 Biggs Darklighter     183    84 black         light      
10 Obi-Wan Kenobi        182    77 auburn, white fair       
# … with 77 more rows
```
…
```
# A tibble: 2 x 5
  name           height skin_color  mass hair_color
  <chr>           <int> <chr>      <dbl> <chr>     
1 Luke Skywalker    172 fair          77 blond     
2 C-3PO             167 gold          75 <NA>      
```

```
# A tibble: 87 x 5
   name               height  mass skin_color  hair_color   
   <chr>               <int> <dbl> <chr>       <chr>        
 1 Luke Skywalker        172    77 fair        blond        
 2 C-3PO                 167    75 gold        <NA>         
 3 R2-D2                  96    32 white, blue <NA>         
 4 Darth Vader           202   136 white       none         
 5 Leia Organa           150    49 light       brown        
 6 Owen Lars             178   120 light       brown, grey  
 7 Beru Whitesun lars    165    75 light       brown        
 8 R5-D4                  97    32 white, red  <NA>         
 9 Biggs Darklighter     183    84 light       black        
10 Obi-Wan Kenobi        182    77 fair        auburn, white
# … with 77 more rows
```
…
```
# A tibble: 2 x 5
  name           height  mass skin_color hair_color
  <chr>           <int> <dbl> <chr>      <chr>     
1 Luke Skywalker    172    77 fair       blond     
2 C-3PO             167    75 gold       <NA>      
```

```
# A tibble: 87 x 5
   name               height  mass hair_color    skin_color 
   <chr>               <int> <dbl> <chr>         <chr>      
 1 Luke Skywalker        172    77 blond         fair       
 2 C-3PO                 167    75 <NA>          gold       
 3 R2-D2                  96    32 <NA>          white, blue
 4 Darth Vader           202   136 none          white      
 5 Leia Organa           150    49 brown         light      
 6 Owen Lars             178   120 brown, grey   light      
 7 Beru Whitesun lars    165    75 brown         light      
 8 R5-D4                  97    32 <NA>          white, red 
 9 Biggs Darklighter     183    84 black         light      
10 Obi-Wan Kenobi        182    77 auburn, white fair       
# … with 77 more rows
```
…
```
# A tibble: 2 x 5
  name           height  mass skin_color hair_color
  <chr>           <int> <dbl> <chr>      <chr>     
1 Luke Skywalker    172    77 fair       blond     
2 C-3PO             167    75 gold       <NA>      
```

```
# A tibble: 87 x 5
   name                mass hair_color    skin_color  height
   <chr>              <dbl> <chr>         <chr>        <int>
 1 Luke Skywalker        77 blond         fair           172
 2 C-3PO                 75 <NA>          gold           167
 3 R2-D2                 32 <NA>          white, blue     96
 4 Darth Vader          136 none          white          202
 5 Leia Organa           49 brown         light          150
 6 Owen Lars            120 brown, grey   light          178
 7 Beru Whitesun lars    75 brown         light          165
 8 R5-D4                 32 <NA>          white, red      97
 9 Biggs Darklighter     84 black         light          183
10 Obi-Wan Kenobi        77 auburn, white fair           182
# … with 77 more rows
```
…
```
# A tibble: 2 x 5
  name            mass hair_color skin_color height
  <chr>          <dbl> <chr>      <chr>       <int>
1 Luke Skywalker    77 blond      fair          172
2 C-3PO             75 <NA>       gold          167
```

```
# A tibble: 87 x 5
   name               height  mass hair_color    skin_color 
   <chr>               <int> <dbl> <chr>         <chr>      
 1 Luke Skywalker        172    77 blond         fair       
 2 C-3PO                 167    75 <NA>          gold       
 3 R2-D2                  96    32 <NA>          white, blue
 4 Darth Vader           202   136 none          white      
 5 Leia Organa           150    49 brown         light      
 6 Owen Lars             178   120 brown, grey   light      
 7 Beru Whitesun lars    165    75 brown         light      
 8 R5-D4                  97    32 <NA>          white, red 
 9 Biggs Darklighter     183    84 black         light      
10 Obi-Wan Kenobi        182    77 auburn, white fair       
# … with 77 more rows
```
…
```
# A tibble: 2 x 5
  name            mass hair_color skin_color height
  <chr>          <dbl> <chr>      <chr>       <int>
1 Luke Skywalker    77 blond      fair          172
2 C-3PO             75 <NA>       gold          167
```

```
# A tibble: 87 x 5
   name               hair_color    skin_color  height  mass
   <chr>              <chr>         <chr>        <int> <dbl>
 1 Luke Skywalker     blond         fair           172    77
 2 C-3PO              <NA>          gold           167    75
 3 R2-D2              <NA>          white, blue     96    32
 4 Darth Vader        none          white          202   136
 5 Leia Organa        brown         light          150    49
 6 Owen Lars          brown, grey   light          178   120
 7 Beru Whitesun lars brown         light          165    75
 8 R5-D4              <NA>          white, red      97    32
 9 Biggs Darklighter  black         light          183    84
10 Obi-Wan Kenobi     auburn, white fair           182    77
# … with 77 more rows
```
…
```
# A tibble: 2 x 5
  name           hair_color skin_color height  mass
  <chr>          <chr>      <chr>       <int> <dbl>
1 Luke Skywalker blond      fair          172    77
2 C-3PO          <NA>       gold          167    75
```

```
# A tibble: 87 x 5
   name               height  mass hair_color    skin_color 
   <chr>               <int> <dbl> <chr>         <chr>      
 1 Luke Skywalker        172    77 blond         fair       
 2 C-3PO                 167    75 <NA>          gold       
 3 R2-D2                  96    32 <NA>          white, blue
 4 Darth Vader           202   136 none          white      
 5 Leia Organa           150    49 brown         light      
 6 Owen Lars             178   120 brown, grey   light      
 7 Beru Whitesun lars    165    75 brown         light      
 8 R5-D4                  97    32 <NA>          white, red 
 9 Biggs Darklighter     183    84 black         light      
10 Obi-Wan Kenobi        182    77 auburn, white fair       
# … with 77 more rows
```
…
```
# A tibble: 2 x 5
  name           hair_color skin_color height  mass
  <chr>          <chr>      <chr>       <int> <dbl>
1 Luke Skywalker blond      fair          172    77
2 C-3PO          <NA>       gold          167    75
```

```
# A tibble: 87 x 5
   name               hair_color    skin_color  height  mass
   <chr>              <chr>         <chr>        <int> <dbl>
 1 Luke Skywalker     blond         fair           172    77
 2 C-3PO              <NA>          gold           167    75
 3 R2-D2              <NA>          white, blue     96    32
 4 Darth Vader        none          white          202   136
 5 Leia Organa        brown         light          150    49
 6 Owen Lars          brown, grey   light          178   120
 7 Beru Whitesun lars brown         light          165    75
 8 R5-D4              <NA>          white, red      97    32
 9 Biggs Darklighter  black         light          183    84
10 Obi-Wan Kenobi     auburn, white fair           182    77
# … with 77 more rows
```
…
---

class: split-50
count: false

.column[.content[

```r
*starwars
```
]]
.column[.content[

```
# A tibble: 87 x 14
   name  height  mass hair_color skin_color eye_color birth_year sex   gender
   <chr>  <int> <dbl> <chr>      <chr>      <chr>          <dbl> <chr> <chr> 
 1 Luke…    172    77 blond      fair       blue            19   male  mascu…
 2 C-3PO    167    75 <NA>       gold       yellow         112   none  mascu…
 3 R2-D2     96    32 <NA>       white, bl… red             33   none  mascu…
 4 Dart…    202   136 none       white      yellow          41.9 male  mascu…
 5 Leia…    150    49 brown      light      brown           19   fema… femin…
 6 Owen…    178   120 brown, gr… light      blue            52   male  mascu…
 7 Beru…    165    75 brown      light      blue            47   fema… femin…
 8 R5-D4     97    32 <NA>       white, red red             NA   none  mascu…
 9 Bigg…    183    84 black      light      brown           24   male  mascu…
10 Obi-…    182    77 auburn, w… fair       blue-gray       57   male  mascu…
# … with 77 more rows, and 5 more variables: homeworld <chr>, species <chr>,
#   films <list>, vehicles <list>, starships <list>
```
…
```
# A tibble: 1 x 8
   name hair_color skin_color eye_color   sex gender homeworld species
  <int>      <int>      <int>     <int> <int>  <int>     <int>   <int>
1    87         13         31        15     5      3        49      38
```

```
# A tibble: 87 x 14
   name  height  mass hair_color skin_color eye_color birth_year sex   gender
   <chr>  <int> <dbl> <chr>      <chr>      <chr>          <dbl> <chr> <chr> 
 1 Luke…    172    77 blond      fair       blue            19   male  mascu…
 2 C-3PO    167    75 <NA>       gold       yellow         112   none  mascu…
 3 R2-D2     96    32 <NA>       white, bl… red             33   none  mascu…
 4 Dart…    202   136 none       white      yellow          41.9 male  mascu…
 5 Leia…    150    49 brown      light      brown           19   fema… femin…
 6 Owen…    178   120 brown, gr… light      blue            52   male  mascu…
 7 Beru…    165    75 brown      light      blue            47   fema… femin…
 8 R5-D4     97    32 <NA>       white, red red             NA   none  mascu…
 9 Bigg…    183    84 black      light      brown           24   male  mascu…
10 Obi-…    182    77 auburn, w… fair       blue-gray       57   male  mascu…
# … with 77 more rows, and 5 more variables: homeworld <chr>, species <chr>,
#   films <list>, vehicles <list>, starships <list>
```
…
```
# A tibble: 1 x 8
   name hair_color skin_color eye_color   sex gender homeworld species
  <int>      <int>      <int>     <int> <int>  <int>     <int>   <int>
1    87         13         31        15     5      3        49      38
```

```
# A tibble: 87 x 14
   name  height  mass hair_color skin_color eye_color birth_year sex   gender
   <chr>  <int> <dbl> <chr>      <chr>      <chr>          <dbl> <chr> <chr> 
 1 Luke…    172    77 blond      fair       blue            19   male  mascu…
 2 C-3PO    167    75 <NA>       gold       yellow         112   none  mascu…
 3 R2-D2     96    32 <NA>       white, bl… red             33   none  mascu…
 4 Dart…    202   136 none       white      yellow          41.9 male  mascu…
 5 Leia…    150    49 brown      light      brown           19   fema… femin…
 6 Owen…    178   120 brown, gr… light      blue            52   male  mascu…
 7 Beru…    165    75 brown      light      blue            47   fema… femin…
 8 R5-D4     97    32 <NA>       white, red red             NA   none  mascu…
 9 Bigg…    183    84 black      light      brown           24   male  mascu…
10 Obi-…    182    77 auburn, w… fair       blue-gray       57   male  mascu…
# … with 77 more rows, and 5 more variables: homeworld <chr>, species <chr>,
#   films <list>, vehicles <list>, starships <list>
```
…
```
# A tibble: 1 x 3
    sex gender homeworld
  <int>  <int>     <int>
1     5      3        49
```

```
# A tibble: 87 x 14
   name  height  mass hair_color skin_color eye_color birth_year sex   gender
   <chr>  <int> <dbl> <chr>      <chr>      <chr>          <dbl> <chr> <chr> 
 1 Luke…    172    77 blond      fair       blue            19   male  mascu…
 2 C-3PO    167    75 <NA>       gold       yellow         112   none  mascu…
 3 R2-D2     96    32 <NA>       white, bl… red             33   none  mascu…
 4 Dart…    202   136 none       white      yellow          41.9 male  mascu…
 5 Leia…    150    49 brown      light      brown           19   fema… femin…
 6 Owen…    178   120 brown, gr… light      blue            52   male  mascu…
 7 Beru…    165    75 brown      light      blue            47   fema… femin…
 8 R5-D4     97    32 <NA>       white, red red             NA   none  mascu…
 9 Bigg…    183    84 black      light      brown           24   male  mascu…
10 Obi-…    182    77 auburn, w… fair       blue-gray       57   male  mascu…
# … with 77 more rows, and 5 more variables: homeworld <chr>, species <chr>,
#   films <list>, vehicles <list>, starships <list>
```
…
```
# A tibble: 1 x 3
    sex gender homeworld
  <int>  <int>     <int>
1     5      3        49
```

```
# A tibble: 87 x 14
# Groups:   species [38]
   name  height  mass hair_color skin_color eye_color birth_year sex   gender
   <chr>  <int> <dbl> <chr>      <chr>      <chr>          <dbl> <chr> <chr> 
 1 Luke…    172    77 blond      fair       blue            19   male  mascu…
 2 C-3PO    167    75 <NA>       gold       yellow         112   none  mascu…
 3 R2-D2     96    32 <NA>       white, bl… red             33   none  mascu…
 4 Dart…    202   136 none       white      yellow          41.9 male  mascu…
 5 Leia…    150    49 brown      light      brown           19   fema… femin…
 6 Owen…    178   120 brown, gr… light      blue            52   male  mascu…
 7 Beru…    165    75 brown      light      blue            47   fema… femin…
 8 R5-D4     97    32 <NA>       white, red red             NA   none  mascu…
 9 Bigg…    183    84 black      light      brown           24   male  mascu…
10 Obi-…    182    77 auburn, w… fair       blue-gray       57   male  mascu…
# … with 77 more rows, and 5 more variables: homeworld <chr>, species <chr>,
#   films <list>, vehicles <list>, starships <list>
```
…
```
# A tibble: 1 x 3
    sex gender homeworld
  <int>  <int>     <int>
1     5      3        49
```

```
# A tibble: 58 x 14
# Groups:   species [9]
   name  height  mass hair_color skin_color eye_color birth_year sex   gender
   <chr>  <int> <dbl> <chr>      <chr>      <chr>          <dbl> <chr> <chr> 
 1 Luke…    172    77 blond      fair       blue            19   male  mascu…
 2 C-3PO    167    75 <NA>       gold       yellow         112   none  mascu…
 3 R2-D2     96    32 <NA>       white, bl… red             33   none  mascu…
 4 Dart…    202   136 none       white      yellow          41.9 male  mascu…
 5 Leia…    150    49 brown      light      brown           19   fema… femin…
 6 Owen…    178   120 brown, gr… light      blue            52   male  mascu…
 7 Beru…    165    75 brown      light      blue            47   fema… femin…
 8 R5-D4     97    32 <NA>       white, red red             NA   none  mascu…
 9 Bigg…    183    84 black      light      brown           24   male  mascu…
10 Obi-…    182    77 auburn, w… fair       blue-gray       57   male  mascu…
# … with 48 more rows, and 5 more variables: homeworld <chr>, species <chr>,
#   films <list>, vehicles <list>, starships <list>
```
…
