Data Management and Visualization with R
…
---

## Check the variable types 

#### Type `bd_remit` in the console

```r
bd_remit 
```

```
# A tibble: 31 x 21
   Period `Saudi Arabia` U.A.E.  U.K. Kuwait U.S.A. Libya Qatar
   <chr>           <dbl>  <dbl> <dbl>  <dbl>  <dbl> <dbl> <dbl>
 1 1987-…           708.   195.  276.  301.    192. 37.7   143.
 2 1988-…           705.   197.  217.  310.    270. 32.8   144.
 3 1989-…           745.   182.  192.  294.    271. 28.2   133.
 4 1990-…           945    279.  246.   32.1   215. 15.0   212.
 5 1991-…          1206.   304.  219.  258.    212.  6.31  186.
 6 1992-…          1560.   314.  190.  486.    267.  7.72  211.
 7 1993-…          1772.   352.  194.  741.    315.  7.61  225.
 8 1994-…          1917.   327.  189.  702.    411.  4.1   290.
 9 1995-…          2035.   342.  169.  712.    471.  0.69  218.
10 1996-…          2510.   382.  240.  903.    673.  1.91  227.
# … with 21 more rows, and 13 more variables: Oman <dbl>,
#   Singapore <dbl>, Germany <dbl>, Bahrain <dbl>, Iran <dbl>,
#   Japan <chr>, Malaysia <chr>, Australia <chr>, Italy <chr>,
#   `South Korea` <chr>, `Hong Kong` <chr>, `Other
#   Countries` <dbl>, Total <dbl>
```
…
---

## Check the variable types 

#### Type `bd_remit` in the console

```r
bd_remit 
```

```
# A tibble: 31 x 22
   Period `Saudi Arabia` U.A.E.  U.K. Kuwait U.S.A. Libya Qatar
   <chr>           <dbl>  <dbl> <dbl>  <dbl>  <dbl> <dbl> <dbl>
 1 1987-…           708.   195.  276.  301.    192. 37.7   143.
 2 1988-…           705.   197.  217.  310.    270. 32.8   144.
 3 1989-…           745.   182.  192.  294.    271. 28.2   133.
 4 1990-…           945    279.  246.   32.1   215. 15.0   212.
 5 1991-…          1206.   304.  219.  258.    212.  6.31  186.
 6 1992-…          1560.   314.  190.  486.    267.  7.72  211.
 7 1993-…          1772.   352.  194.  741.    315.  7.61  225.
 8 1994-…          1917.   327.  189.  702.    411.  4.1   290.
 9 1995-…          2035.   342.  169.  712.    471.  0.69  218.
10 1996-…          2510.   382.  240.  903.    673.  1.91  227.
# … with 21 more rows, and 14 more variables: Oman <dbl>,
#   Singapore <dbl>, Germany <dbl>, Bahrain <dbl>, Iran <dbl>,
#   Japan <chr>, Malaysia <chr>, Australia <chr>, Italy <chr>,
#   `South Korea` <chr>, `Hong Kong` <chr>, `Other
#   Countries` <dbl>, Total <dbl>, year <int>
```
…
---

## Change variable types 

```r
bd_remit <- mutate_if(bd_remit,is.character,as.numeric)
bd_remit
```

```
# A tibble: 31 x 22
   Period `Saudi Arabia` U.A.E.  U.K. Kuwait U.S.A. Libya Qatar
    <dbl>          <dbl>  <dbl> <dbl>  <dbl>  <dbl> <dbl> <dbl>
 1     NA           708.   195.  276.  301.    192. 37.7   143.
 2     NA           705.   197.  217.  310.    270. 32.8   144.
 3     NA           745.   182.  192.  294.    271. 28.2   133.
 4     NA           945    279.  246.   32.1   215. 15.0   212.
 5     NA          1206.   304.  219.  258.    212.  6.31  186.
 6     NA          1560.   314.  190.  486.    267.  7.72  211.
 7     NA          1772.   352.  194.  741.    315.  7.61  225.
 8     NA          1917.   327.  189.  702.    411.  4.1   290.
 9     NA          2035.   342.  169.  712.    471.  0.69  218.
10     NA          2510.   382.  240.  903.    673.  1.91  227.
# … with 21 more rows, and 14 more variables: Oman <dbl>,
#   Singapore <dbl>, Germany <dbl>, Bahrain <dbl>, Iran <dbl>,
#   Japan <dbl>, Malaysia <dbl>, Australia <dbl>, Italy <dbl>,
#   `South Korea` <dbl>, `Hong Kong` <dbl>, `Other
#   Countries` <dbl>, Total <dbl>, year <int>
```

---

## Further modifications

#### Remove unnecessary variables

```r
bd_remit <- select(bd_remit, -Period,-Total)
bd_remit
```

```
# A tibble: 31 x 20
   `Saudi Arabia` U.A.E.  U.K. Kuwait U.S.A. Libya Qatar  Oman
            <dbl>  <dbl> <dbl>  <dbl>  <dbl> <dbl> <dbl> <dbl>
 1           708.   195.  276.  301.    192. 37.7   143.  162.
 2           705.   197.  217.  310.    270. 32.8   144.  144.
 3           745.   182.  192.  294.    271. 28.2   133.  133.
 4           945    279.  246.   32.1   215. 15.0   212.  177.
 5          1206.   304.  219.  258.    212.  6.31  186.  232.
 6          1560.   314.  190.  486.    267.  7.72  211.  235.
 7          1772.   352.  194.  741.    315.  7.61  225.  292.
 8          1917.   327.  189.  702.    411.  4.1   290.  327.
 9          2035.   342.  169.  712.    471.  0.69  218.  334.
10          2510.   382.  240.  903.    673.  1.91  227.  403.
# … with 21 more rows, and 12 more variables: Singapore <dbl>,
#   Germany <dbl>, Bahrain <dbl>, Iran <dbl>, Japan <dbl>,
#   Malaysia <dbl>, Australia <dbl>, Italy <dbl>, `South
#   Korea` <dbl>, `Hong Kong` <dbl>, `Other Countries` <dbl>,
#   year <int>
```
---

#### Rearrange variables

```r
bd_remit <- select(bd_remit,year, everything())
bd_remit
```

```
# A tibble: 31 x 20
    year `Saudi Arabia` U.A.E.  U.K. Kuwait U.S.A. Libya Qatar
   <int>          <dbl>  <dbl> <dbl>  <dbl>  <dbl> <dbl> <dbl>
 1  1987           708.   195.  276.  301.    192. 37.7   143.
 2  1988           705.   197.  217.  310.    270. 32.8   144.
 3  1989           745.   182.  192.  294.    271. 28.2   133.
 4  1990           945    279.  246.   32.1   215. 15.0   212.
 5  1991          1206.   304.  219.  258.    212.  6.31  186.
 6  1992          1560.   314.  190.  486.    267.  7.72  211.
 7  1993          1772.   352.  194.  741.    315.  7.61  225.
 8  1994          1917.   327.  189.  702.    411.  4.1   290.
 9  1995          2035.   342.  169.  712.    471.  0.69  218.
10  1996          2510.   382.  240.  903.    673.  1.91  227.
# … with 21 more rows, and 12 more variables: Oman <dbl>,
#   Singapore <dbl>, Germany <dbl>, Bahrain <dbl>, Iran <dbl>,
#   Japan <dbl>, Malaysia <dbl>, Australia <dbl>, Italy <dbl>,
#   `South Korea` <dbl>, `Hong Kong` <dbl>, `Other
#   Countries` <dbl>
```
…
class: split-60
count: false

.column[.content[

```r
*read_excel("./Data/time_series_data1972-2018.xlsx",
*                      sheet="TableXXI", skip=2, n_max=31)
```
]]
.column[.content[

```
# A tibble: 31 x 21
   Period `Saudi Arabia` U.A.E.  U.K. Kuwait U.S.A. Libya Qatar
   <chr>           <dbl>  <dbl> <dbl>  <dbl>  <dbl> <dbl> <dbl>
 1 1987-…           708.   195.  276.  301.    192. 37.7   143.
 2 1988-…           705.   197.  217.  310.    270. 32.8   144.
 3 1989-…           745.   182.  192.  294.    271. 28.2   133.
 4 1990-…           945    279.  246.   32.1   215. 15.0   212.
 5 1991-…          1206.   304.  219.  258.    212.  6.31  186.
 6 1992-…          1560.   314.  190.  486.    267.  7.72  211.
 7 1993-…          1772.   352.  194.  741.    315.  7.61  225.
 8 1994-…          1917.   327.  189.  702.    411.  4.1   290.
 9 1995-…          2035.   342.  169.  712.    471.  0.69  218.
10 1996-…          2510.   382.  240.  903.    673.  1.91  227.
# … with 21 more rows, and 13 more variables: Oman <dbl>,
#   Singapore <dbl>, Germany <dbl>, Bahrain <dbl>, Iran <dbl>,
#   Japan <chr>, Malaysia <chr>, Australia <chr>, Italy <chr>,
#   `South Korea` <chr>, `Hong Kong` <chr>, `Other
#   Countries` <dbl>, Total <dbl>
```
…
.column[.content[

```r
read_excel("./Data/time_series_data1972-2018.xlsx",  
                       sheet="TableXXI", skip=2, n_max=31) %>%  
*       mutate(year=1987:2017)
```
]]
.column[.content[

```
# A tibble: 31 x 22
   Period `Saudi Arabia` U.A.E.  U.K. Kuwait U.S.A. Libya Qatar
   <chr>           <dbl>  <dbl> <dbl>  <dbl>  <dbl> <dbl> <dbl>
 1 1987-…           708.   195.  276.  301.    192. 37.7   143.
 2 1988-…           705.   197.  217.  310.    270. 32.8   144.
 3 1989-…           745.   182.  192.  294.    271. 28.2   133.
 4 1990-…           945    279.  246.   32.1   215. 15.0   212.
 5 1991-…          1206.   304.  219.  258.    212.  6.31  186.
 6 1992-…          1560.   314.  190.  486.    267.  7.72  211.
 7 1993-…          1772.   352.  194.  741.    315.  7.61  225.
 8 1994-…          1917.   327.  189.  702.    411.  4.1   290.
 9 1995-…          2035.   342.  169.  712.    471.  0.69  218.
10 1996-…          2510.   382.  240.  903.    673.  1.91  227.
# … with 21 more rows, and 14 more variables: Oman <dbl>,
#   Singapore <dbl>, Germany <dbl>, Bahrain <dbl>, Iran <dbl>,
#   Japan <chr>, Malaysia <chr>, Australia <chr>, Italy <chr>,
#   `South Korea` <chr>, `Hong Kong` <chr>, `Other
#   Countries` <dbl>, Total <dbl>, year <int>
```
…
.column[.content[

```r
read_excel("./Data/time_series_data1972-2018.xlsx",  
                       sheet="TableXXI", skip=2, n_max=31) %>%  
        mutate(year=1987:2017) %>%  
*      mutate_if(is.character,as.numeric)
```
]]
.column[.content[

```
# A tibble: 31 x 22
   Period `Saudi Arabia` U.A.E.  U.K. Kuwait U.S.A. Libya Qatar
    <dbl>          <dbl>  <dbl> <dbl>  <dbl>  <dbl> <dbl> <dbl>
 1     NA           708.   195.  276.  301.    192. 37.7   143.
 2     NA           705.   197.  217.  310.    270. 32.8   144.
 3     NA           745.   182.  192.  294.    271. 28.2   133.
 4     NA           945    279.  246.   32.1   215. 15.0   212.
 5     NA          1206.   304.  219.  258.    212.  6.31  186.
 6     NA          1560.   314.  190.  486.    267.  7.72  211.
 7     NA          1772.   352.  194.  741.    315.  7.61  225.
 8     NA          1917.   327.  189.  702.    411.  4.1   290.
 9     NA          2035.   342.  169.  712.    471.  0.69  218.
10     NA          2510.   382.  240.  903.    673.  1.91  227.
# … with 21 more rows, and 14 more variables: Oman <dbl>,
#   Singapore <dbl>, Germany <dbl>, Bahrain <dbl>, Iran <dbl>,
#   Japan <dbl>, Malaysia <dbl>, Australia <dbl>, Italy <dbl>,
#   `South Korea` <dbl>, `Hong Kong` <dbl>, `Other
#   Countries` <dbl>, Total <dbl>, year <int>
```
…
.column[.content[

```r
read_excel("./Data/time_series_data1972-2018.xlsx",  
                       sheet="TableXXI", skip=2, n_max=31) %>%  
        mutate(year=1987:2017) %>%  
       mutate_if(is.character,as.numeric) %>%  
*       select(-Period,-Total)
```
]]
.column[.content[

```
# A tibble: 31 x 20
   `Saudi Arabia` U.A.E.  U.K. Kuwait U.S.A. Libya Qatar  Oman
            <dbl>  <dbl> <dbl>  <dbl>  <dbl> <dbl> <dbl> <dbl>
 1           708.   195.  276.  301.    192. 37.7   143.  162.
 2           705.   197.  217.  310.    270. 32.8   144.  144.
 3           745.   182.  192.  294.    271. 28.2   133.  133.
 4           945    279.  246.   32.1   215. 15.0   212.  177.
 5          1206.   304.  219.  258.    212.  6.31  186.  232.
 6          1560.   314.  190.  486.    267.  7.72  211.  235.
 7          1772.   352.  194.  741.    315.  7.61  225.  292.
 8          1917.   327.  189.  702.    411.  4.1   290.  327.
 9          2035.   342.  169.  712.    471.  0.69  218.  334.
10          2510.   382.  240.  903.    673.  1.91  227.  403.
# … with 21 more rows, and 12 more variables: Singapore <dbl>,
#   Germany <dbl>, Bahrain <dbl>, Iran <dbl>, Japan <dbl>,
#   Malaysia <dbl>, Australia <dbl>, Italy <dbl>, `South
#   Korea` <dbl>, `Hong Kong` <dbl>, `Other Countries` <dbl>,
#   year <int>
```
…
```r
read_excel("./Data/time_series_data1972-2018.xlsx",  
                       sheet="TableXXI", skip=2, n_max=31) %>%  
        mutate(year=1987:2017) %>%  
       mutate_if(is.character,as.numeric) %>%  
        select(-Period,-Total) %>%  
        select(year, everything())  -> bd_remit  
*bd_remit
```
]]
.column[.content[

```
# A tibble: 31 x 20
    year `Saudi Arabia` U.A.E.  U.K. Kuwait U.S.A. Libya Qatar
   <int>          <dbl>  <dbl> <dbl>  <dbl>  <dbl> <dbl> <dbl>
 1  1987           708.   195.  276.  301.    192. 37.7   143.
 2  1988           705.   197.  217.  310.    270. 32.8   144.
 3  1989           745.   182.  192.  294.    271. 28.2   133.
 4  1990           945    279.  246.   32.1   215. 15.0   212.
 5  1991          1206.   304.  219.  258.    212.  6.31  186.
 6  1992          1560.   314.  190.  486.    267.  7.72  211.
 7  1993          1772.   352.  194.  741.    315.  7.61  225.
 8  1994          1917.   327.  189.  702.    411.  4.1   290.
 9  1995          2035.   342.  169.  712.    471.  0.69  218.
10  1996          2510.   382.  240.  903.    673.  1.91  227.
# … with 21 more rows, and 12 more variables: Oman <dbl>,
#   Singapore <dbl>, Germany <dbl>, Bahrain <dbl>, Iran <dbl>,
#   Japan <dbl>, Malaysia <dbl>, Australia <dbl>, Italy <dbl>,
#   `South Korea` <dbl>, `Hong Kong` <dbl>, `Other
#   Countries` <dbl>
```
…
---
class:inverse,middle,center

# Wide to Long 

---

## Another look at the data

```
# A tibble: 31 x 20
    year `Saudi Arabia` U.A.E.  U.K. Kuwait U.S.A. Libya Qatar
   <int>          <dbl>  <dbl> <dbl>  <dbl>  <dbl> <dbl> <dbl>
 1  1987           708.   195.  276.  301.    192. 37.7   143.
 2  1988           705.   197.  217.  310.    270. 32.8   144.
 3  1989           745.   182.  192.  294.    271. 28.2   133.
 4  1990           945    279.  246.   32.1   215. 15.0   212.
 5  1991          1206.   304.  219.  258.    212.  6.31  186.
 6  1992          1560.   314.  190.  486.    267.  7.72  211.
 7  1993          1772.   352.  194.  741.    315.  7.61  225.
 8  1994          1917.   327.  189.  702.    411.  4.1   290.
 9  1995          2035.   342.  169.  712.    471.  0.69  218.
10  1996          2510.   382.  240.  903.    673.  1.91  227.
11  1997          2675.   486.  298.  969.    922.  2.4   263.
12  1998          3294.   602.  260. 1106.   1151.  0.67  307.
13  1999          4608.   653.  361. 1233.   1214.  0.2   321.
14  2000          4973.   779.  301. 1336.   1218.  0.53  342.
15  2001          6599.  1312.  595. 1642.   2048.  0     521.
16  2002          7262.  1896. 1275. 1960.   2652.  0.96  657.
17  2003          8169.  2201. 1754. 2129.   2757.  0.77  670.
18  2004          9291.  2722. 2312. 2499.   3430.  1.66  838.
19  2005         11385.  3776. 3753. 3326.   5106.  1.22 1179.
20  2006         11979.  5561. 6133. 4701.   6423. 18.   1610.
# … with 11 more rows, and 12 more variables: Oman <dbl>,
#   Singapore <dbl>, Germany <dbl>, Bahrain <dbl>, Iran <dbl>,
#   Japan <dbl>, Malaysia <dbl>, Australia <dbl>, Italy <dbl>,
#   `South Korea` <dbl>, `Hong Kong` <dbl>, `Other
#   Countries` <dbl>
```
…
.left-code[

```r
bd_remit %>% 
      pivot_longer(cols = -year,
                   names_to = "country",
                   values_to = "remittance") %>% 
                    arrange(country) -> bd_remit_long 
```
]

.right-output[

```
# A tibble: 589 x 3
    year country   remittance
   <int> <chr>          <dbl>
 1  1987 Australia       NA  
 2  1988 Australia       NA  
 3  1989 Australia       NA  
 4  1990 Australia       NA  
 5  1991 Australia       NA  
 6  1992 Australia       NA  
 7  1993 Australia       NA  
 8  1994 Australia       NA  
 9  1995 Australia       NA  
10  1996 Australia       NA  
11  1997 Australia       NA  
12  1998 Australia       NA  
13  1999 Australia       NA  
14  2000 Australia       NA  
15  2001 Australia       13.1
16  2002 Australia       19.6
17  2003 Australia       28.2
18  2004 Australia       43.9
19  2005 Australia       64.6
20  2006 Australia       78.4
# … with 569 more rows
```
…
class: split-60
count: false

.column[.content[

```r
*  bd_remit
```
]]
.column[.content[

```
# A tibble: 31 x 20
    year `Saudi Arabia` U.A.E.  U.K. Kuwait U.S.A. Libya Qatar
   <int>          <dbl>  <dbl> <dbl>  <dbl>  <dbl> <dbl> <dbl>
 1  1987           708.   195.  276.  301.    192. 37.7   143.
 2  1988           705.   197.  217.  310.    270. 32.8   144.
 3  1989           745.   182.  192.  294.    271. 28.2   133.
 4  1990           945    279.  246.   32.1   215. 15.0   212.
 5  1991          1206.   304.  219.  258.    212.  6.31  186.
 6  1992          1560.   314.  190.  486.    267.  7.72  211.
 7  1993          1772.   352.  194.  741.    315.  7.61  225.
 8  1994          1917.   327.  189.  702.    411.  4.1   290.
 9  1995          2035.   342.  169.  712.    471.  0.69  218.
10  1996          2510.   382.  240.  903.    673.  1.91  227.
# … with 21 more rows, and 12 more variables: Oman <dbl>,
#   Singapore <dbl>, Germany <dbl>, Bahrain <dbl>, Iran <dbl>,
#   Japan <dbl>, Malaysia <dbl>, Australia <dbl>, Italy <dbl>,
#   `South Korea` <dbl>, `Hong Kong` <dbl>, `Other
#   Countries` <dbl>
```
…
.column[.content[

```r
   bd_remit %>%  
*     pivot_longer(cols = -year,
*                  names_to = "country",
*                  values_to = "remittance")
```
]]
.column[.content[

```
# A tibble: 589 x 3
    year country      remittance
   <int> <chr>             <dbl>
 1  1987 Saudi Arabia     708.  
 2  1987 U.A.E.           195.  
 3  1987 U.K.             276.  
 4  1987 Kuwait           301.  
 5  1987 U.S.A.           192.  
 6  1987 Libya             37.7 
 7  1987 Qatar            143.  
 8  1987 Oman             162.  
 9  1987 Singapore          6.59
10  1987 Germany           23.8 
# … with 579 more rows
```
…
.column[.content[

```r
   bd_remit %>%  
      pivot_longer(cols = -year,  
                   names_to = "country",  
                   values_to = "remittance") %>%  
*                   arrange(year)
```
]]
.column[.content[

```
# A tibble: 589 x 3
    year country      remittance
   <int> <chr>             <dbl>
 1  1987 Saudi Arabia     708.  
 2  1987 U.A.E.           195.  
 3  1987 U.K.             276.  
 4  1987 Kuwait           301.  
 5  1987 U.S.A.           192.  
 6  1987 Libya             37.7 
 7  1987 Qatar            143.  
 8  1987 Oman             162.  
 9  1987 Singapore          6.59
10  1987 Germany           23.8 
# … with 579 more rows
```
…
.column[.content[

```r
   bd_remit %>%  
      pivot_longer(cols = -year,  
                   names_to = "country",  
                   values_to = "remittance") %>%  
                    arrange(year)  %>%  
*	    arrange(country,year)
```
]]
.column[.content[

```
# A tibble: 589 x 3
    year country   remittance
   <int> <chr>          <dbl>
 1  1987 Australia         NA
 2  1988 Australia         NA
 3  1989 Australia         NA
 4  1990 Australia         NA
 5  1991 Australia         NA
 6  1992 Australia         NA
 7  1993 Australia         NA
 8  1994 Australia         NA
 9  1995 Australia         NA
10  1996 Australia         NA
# … with 579 more rows
```
…
.column[.content[

```r
   bd_remit %>%  
      pivot_longer(cols = -year,  
                   names_to = "country",  
                   values_to = "remittance") %>%  
                    arrange(year)  %>%  
		    arrange(country,year)  
```
]]
.column[.content[

```
# A tibble: 589 x 3
    year country   remittance
   <int> <chr>          <dbl>
 1  1987 Australia         NA
 2  1988 Australia         NA
 3  1989 Australia         NA
 4  1990 Australia         NA
 5  1991 Australia         NA
 6  1992 Australia         NA
 7  1993 Australia         NA
 8  1994 Australia         NA
 9  1995 Australia         NA
10  1996 Australia         NA
# … with 579 more rows
```
…
```r
bd_remit_reg <- bd_remit_long %>% 
         mutate(country=as.factor(country),
			    region=fct_collapse(country, 
	"Middle East"=c("Kuwait", "U.A.E.","Saudi Arabia",
			"Iran","Oman","Qatar","Libya","Bahrain"),
	"East Asia"= c("South Korea", "Japan", 
		       "Malaysia","Hong Kong","Singapore"),
	 Europe= c("Germany","U.K.", "Italy"),
	 USA="U.S.A."))  
bd_remit_reg
```

```
# A tibble: 589 x 4
    year country   remittance region   
   <int> <fct>          <dbl> <fct>    
 1  1987 Australia         NA Australia
 2  1988 Australia         NA Australia
 3  1989 Australia         NA Australia
 4  1990 Australia         NA Australia
 5  1991 Australia         NA Australia
 6  1992 Australia         NA Australia
 7  1993 Australia         NA Australia
 8  1994 Australia         NA Australia
 9  1995 Australia         NA Australia
10  1996 Australia         NA Australia
# … with 579 more rows
```
…
