…
Now we are going to remove the stop words meaning those words which are used repeatedly without any special meaning such and, there etc.

clean_books  <- tidy_books %>% 
                 anti_join(stop_words)

## Joining, by = "word"

save(clean_books, file="../RDATA/clean_books.RData")

We can try to find the most common words used in the following manner:

clean_books %>% 
    count(word, sort=TRUE)

## # A tibble: 13,914 x 2
##      word     n
##     <chr> <int>
##  1   miss  1855
##  2   time  1337
##  3  fanny   862
##  4   dear   822
##  5   lady   817
##  6    sir   806
##  7    day   797
##  8   emma   787
##  9 sister   727
## 10  house   699
## # ... with 13,904 more rows
…
