…
Now the sentences are into data frame we are ready to break those down into words.

library(tidytext)
tidy_speech <- speech.df.clean %>%
                  unnest_tokens(word, text)

Now we can see which words were most frequently used:

tidy_speech %>%
  count(word, sort=TRUE)

# A tibble: 611 x 2
     word     n
    <chr> <int>
 1   আমার    30
 2    আমি    27
 3   আমরা    23
 4    করে    23
 5     না    23
 6 আমাদের    19
 7    হবে    15
 8    যদি    14
 9     যে    14
10 আপনারা    13
# ... with 601 more rows
…
